es,en
Inicio,Home
Glosario,Glossary
Comparación,Compare
Países,Countries
Resumen global,Global report
Conozca más,More
Comparación regional,Regional comparison
Comparar,Compare
Región,Region
Todos los países,All countries
Puntaje total,Total score
Montevideo 2017,Montevideo 2017
,
Cerrar,Close
Seleccione un país,Select a country
Recomendaciones,Recommendations
Mostrar respuestas,Show answers
Expandir filas,Expand rows
Sobre nosotras,About us
Por componente,By component
Por subcomponente,By subcomponent
Enviar,Send
Limpiar,Clear
Ayuda,Help
Socias regionales,Regional partners
Rasgos fuertes,Strong features
Rasgos intermedios,Intermediate features
Rasgos débiles,Weak features
Sin respuesta,No data
Cambiar de tema,Change subject
Mostrar un país,Show a country
Documento,Document
Notas,Notes
Documentos fuente,Source documents
Información adicional,Aditional information
Esta sección está vacía,This section is empty
Medidas prioritarias,Priority actions
Volver arriba,Go to top
Porcentaje,Percent
Tarjeta de país,Country Card
"Para un mejor resultado, marque las casillas de 'Imprimir colores de fondo' e 'Imprimir imágenes de fondo' en la ventana de impresión de su navegador","For better results, check the boxes “Print Background Colors” and “Print Background Images” on the print dialog."
Ver recomendaciones,View recommendations
Comparación de países,Country comparison
Añadir un país,Add a country
Pregunta,Question